<?xml version="1.0" encoding="UTF-8" standalone="no"?>
<!DOCTYPE svg PUBLIC "-//W3C//DTD SVG 1.1//EN" "http://www.w3.org/Graphics/SVG/1.1/DTD/svg11.dtd">
<svg version="1.1" id="Layer_1" xmlns="http://www.w3.org/2000/svg" xmlns:xlink="http://www.w3.org/1999/xlink" x="0px" y="0px" width="256px" height="256px" viewBox="0 0 256 256" xml:space="preserve">
<rect style="fill:#08216b" width="7.98" height="7.98" x="0" y="0" />
<rect style="fill:#08216b" width="7.88" height="7.88" x="0" y="8" />
<rect style="fill:#08216b" width="7.25" height="7.25" x="0" y="16" />
<rect style="fill:#08216b" width="7.54" height="7.54" x="0" y="24" />
<rect style="fill:#08216b" width="7.45" height="7.45" x="0" y="32" />
<rect style="fill:#08216b" width="7.9" height="7.9" x="0" y="40" />
<rect style="fill:#08216b" width="7.7" height="7.7" x="0" y="48" />
<rect style="fill:#08216b" width="7.45" height="7.45" x="0" y="56" />
<rect style="fill:#08216b" width="7.34" height="7.34" x="0" y="64" />
<rect style="fill:#08216b" width="7.88" height="7.88" x="0" y="72" />
<rect style="fill:#08216b" width="7.28" height="7.28" x="0" y="80" />
<rect style="fill:#183173" width="7.39" height="7.39" x="0" y="88" />
<rect style="fill:#42528c" width="7.0" height="7.0" x="0" y="96" />
<rect style="fill:#4a6394" width="7.89" height="7.89" x="0" y="104" />
<rect style="fill:#29427b" width="7.88" height="7.88" x="0" y="112" />
<rect style="fill:#10296b" width="7.85" height="7.85" x="0" y="120" />
<rect style="fill:#08216b" width="7.55" height="7.55" x="0" y="128" />
<rect style="fill:#08216b" width="7.74" height="7.74" x="0" y="136" />
<rect style="fill:#08216b" width="7.52" height="7.52" x="0" y="144" />
<rect style="fill:#08216b" width="7.74" height="7.74" x="0" y="152" />
<rect style="fill:#08216b" width="7.29" height="7.29" x="0" y="160" />
<rect style="fill:#08216b" width="7.71" height="7.71" x="0" y="168" />
<rect style="fill:#08216b" width="7.09" height="7.09" x="0" y="176" />
<rect style="fill:#08216b" width="7.3" height="7.3" x="0" y="184" />
<rect style="fill:#08216b" width="7.96" height="7.96" x="0" y="192" />
<rect style="fill:#10296b" width="7.67" height="7.67" x="0" y="200" />
<rect style="fill:#183173" width="7.54" height="7.54" x="0" y="208" />
<rect style="fill:#102973" width="7.19" height="7.19" x="0" y="216" />
<rect style="fill:#10296b" width="7.9" height="7.9" x="0" y="224" />
<rect style="fill:#08216b" width="7.11" height="7.11" x="0" y="232" />
<rect style="fill:#08216b" width="7.63" height="7.63" x="0" y="240" />
<rect style="fill:#08216b" width="7.4" height="7.4" x="0" y="248" />
<rect style="fill:#08216b" width="7.66" height="7.66" x="8" y="0" />
<rect style="fill:#08216b" width="7.58" height="7.58" x="8" y="8" />
<rect style="fill:#08216b" width="7.88" height="7.88" x="8" y="16" />
<rect style="fill:#08216b" width="7.18" height="7.18" x="8" y="24" />
<rect style="fill:#08216b" width="7.63" height="7.63" x="8" y="32" />
<rect style="fill:#08216b" width="7.45" height="7.45" x="8" y="40" />
<rect style="fill:#08216b" width="7.19" height="7.19" x="8" y="48" />
<rect style="fill:#08216b" width="7.52" height="7.52" x="8" y="56" />
<rect style="fill:#08216b" width="7.31" height="7.31" x="8" y="64" />
<rect style="fill:#08216b" width="7.8" height="7.8" x="8" y="72" />
<rect style="fill:#183173" width="7.38" height="7.38" x="8" y="80" />
<rect style="fill:#5a6b9c" width="7.27" height="7.27" x="8" y="88" />
<rect style="fill:#a5b5ce" width="7.05" height="7.05" x="8" y="96" />
<rect style="fill:#bdc6d6" width="7.66" height="7.66" x="8" y="104" />
<rect style="fill:#7b84ad" width="7.8" height="7.8" x="8" y="112" />
<rect style="fill:#42528c" width="7.58" height="7.58" x="8" y="120" />
<rect style="fill:#394a84" width="7.05" height="7.05" x="8" y="128" />
<rect style="fill:#29427b" width="7.65" height="7.65" x="8" y="136" />
<rect style="fill:#183173" width="7.5" height="7.5" x="8" y="144" />
<rect style="fill:#183173" width="7.53" height="7.53" x="8" y="152" />
<rect style="fill:#183173" width="7.64" height="7.64" x="8" y="160" />
<rect style="fill:#183173" width="7.86" height="7.86" x="8" y="168" />
<rect style="fill:#183173" width="7.3" height="7.3" x="8" y="176" />
<rect style="fill:#183173" width="7.5" height="7.5" x="8" y="184" />
<rect style="fill:#21397b" width="7.86" height="7.86" x="8" y="192" />
<rect style="fill:#526394" width="7.06" height="7.06" x="8" y="200" />
<rect style="fill:#8494b5" width="7.8" height="7.8" x="8" y="208" />
<rect style="fill:#6b7ba5" width="7.77" height="7.77" x="8" y="216" />
<rect style="fill:#314284" width="7.26" height="7.26" x="8" y="224" />
<rect style="fill:#10296b" width="7.58" height="7.58" x="8" y="232" />
<rect style="fill:#08216b" width="7.5" height="7.5" x="8" y="240" />
<rect style="fill:#08216b" width="7.14" height="7.14" x="8" y="248" />
<rect style="fill:#08216b" width="7.71" height="7.71" x="16" y="0" />
<rect style="fill:#08216b" width="7.1" height="7.1" x="16" y="8" />
<rect style="fill:#08216b" width="7.55" height="7.55" x="16" y="16" />
<rect style="fill:#08216b" width="7.32" height="7.32" x="16" y="24" />
<rect style="fill:#08216b" width="7.66" height="7.66" x="16" y="32" />
<rect style="fill:#08216b" width="7.09" height="7.09" x="16" y="40" />
<rect style="fill:#08216b" width="7.22" height="7.22" x="16" y="48" />
<rect style="fill:#08216b" width="7.8100000000000005" height="7.8100000000000005" x="16" y="56" />
<rect style="fill:#08216b" width="7.6" height="7.6" x="16" y="64" />
<rect style="fill:#10296b" width="7.6" height="7.6" x="16" y="72" />
<rect style="fill:#394a84" width="7.47" height="7.47" x="16" y="80" />
<rect style="fill:#a5adc6" width="7.16" height="7.16" x="16" y="88" />
<rect style="fill:#efeff7" width="7.23" height="7.23" x="16" y="96" />
<rect style="fill:#efeff7" width="7.59" height="7.59" x="16" y="104" />
<rect style="fill:#bdc6d6" width="7.43" height="7.43" x="16" y="112" />
<rect style="fill:#adb5ce" width="7.0" height="7.0" x="16" y="120" />
<rect style="fill:#a5adc6" width="7.73" height="7.73" x="16" y="128" />
<rect style="fill:#9ca5c6" width="7.22" height="7.22" x="16" y="136" />
<rect style="fill:#949cbd" width="7.47" height="7.47" x="16" y="144" />
<rect style="fill:#8c9cbd" width="7.36" height="7.36" x="16" y="152" />
<rect style="fill:#8c9cbd" width="7.37" height="7.37" x="16" y="160" />
<rect style="fill:#8c9cbd" width="7.93" height="7.93" x="16" y="168" />
<rect style="fill:#8c9cbd" width="7.61" height="7.61" x="16" y="176" />
<rect style="fill:#8c9cbd" width="7.83" height="7.83" x="16" y="184" />
<rect style="fill:#94a5bd" width="7.7" height="7.7" x="16" y="192" />
<rect style="fill:#b5bdce" width="7.17" height="7.17" x="16" y="200" />
<rect style="fill:#e7e7ef" width="7.58" height="7.58" x="16" y="208" />
<rect style="fill:#c6cede" width="7.25" height="7.25" x="16" y="216" />
<rect style="fill:#7b8cad" width="7.97" height="7.97" x="16" y="224" />
<rect style="fill:#29427b" width="7.22" height="7.22" x="16" y="232" />
<rect style="fill:#08216b" width="7.53" height="7.53" x="16" y="240" />
<rect style="fill:#08216b" width="7.89" height="7.89" x="16" y="248" />
<rect style="fill:#08216b" width="7.43" height="7.43" x="24" y="0" />
<rect style="fill:#08216b" width="7.62" height="7.62" x="24" y="8" />
<rect style="fill:#08216b" width="7.52" height="7.52" x="24" y="16" />
<rect style="fill:#08216b" width="7.84" height="7.84" x="24" y="24" />
<rect style="fill:#08216b" width="7.25" height="7.25" x="24" y="32" />
<rect style="fill:#08216b" width="7.11" height="7.11" x="24" y="40" />
<rect style="fill:#08216b" width="7.04" height="7.04" x="24" y="48" />
<rect style="fill:#08216b" width="7.64" height="7.64" x="24" y="56" />
<rect style="fill:#08216b" width="7.89" height="7.89" x="24" y="64" />
<rect style="fill:#10296b" width="7.96" height="7.96" x="24" y="72" />
<rect style="fill:#4a6394" width="7.95" height="7.95" x="24" y="80" />
<rect style="fill:#bdc6d6" width="7.83" height="7.83" x="24" y="88" />
<rect style="fill:#ffffff" width="7.87" height="7.87" x="24" y="96" />
<rect style="fill:#ffffff" width="7.91" height="7.91" x="24" y="104" />
<rect style="fill:#ffffff" width="7.0" height="7.0" x="24" y="112" />
<rect style="fill:#ffffff" width="7.96" height="7.96" x="24" y="120" />
<rect style="fill:#ffffff" width="7.59" height="7.59" x="24" y="128" />
<rect style="fill:#ffffff" width="7.98" height="7.98" x="24" y="136" />
<rect style="fill:#ffffff" width="7.96" height="7.96" x="24" y="144" />
<rect style="fill:#ffffff" width="7.87" height="7.87" x="24" y="152" />
<rect style="fill:#ffffff" width="7.31" height="7.31" x="24" y="160" />
<rect style="fill:#ffffff" width="7.62" height="7.62" x="24" y="168" />
<rect style="fill:#ffffff" width="7.61" height="7.61" x="24" y="176" />
<rect style="fill:#ffffff" width="7.41" height="7.41" x="24" y="184" />
<rect style="fill:#ffffff" width="7.06" height="7.06" x="24" y="192" />
<rect style="fill:#ffffff" width="7.36" height="7.36" x="24" y="200" />
<rect style="fill:#ffffff" width="7.26" height="7.26" x="24" y="208" />
<rect style="fill:#ffffff" width="7.04" height="7.04" x="24" y="216" />
<rect style="fill:#bdc6d6" width="7.6899999999999995" height="7.6899999999999995" x="24" y="224" />
<rect style="fill:#5a6b9c" width="7.03" height="7.03" x="24" y="232" />
<rect style="fill:#10296b" width="7.47" height="7.47" x="24" y="240" />
<rect style="fill:#08216b" width="7.87" height="7.87" x="24" y="248" />
<rect style="fill:#08216b" width="7.97" height="7.97" x="32" y="0" />
<rect style="fill:#08216b" width="7.99" height="7.99" x="32" y="8" />
<rect style="fill:#08216b" width="7.16" height="7.16" x="32" y="16" />
<rect style="fill:#08216b" width="7.89" height="7.89" x="32" y="24" />
<rect style="fill:#08216b" width="7.35" height="7.35" x="32" y="32" />
<rect style="fill:#08216b" width="7.17" height="7.17" x="32" y="40" />
<rect style="fill:#08216b" width="7.89" height="7.89" x="32" y="48" />
<rect style="fill:#08216b" width="7.82" height="7.82" x="32" y="56" />
<rect style="fill:#08216b" width="7.76" height="7.76" x="32" y="64" />
<rect style="fill:#08216b" width="7.65" height="7.65" x="32" y="72" />
<rect style="fill:#314284" width="7.78" height="7.78" x="32" y="80" />
<rect style="fill:#949cbd" width="7.48" height="7.48" x="32" y="88" />
<rect style="fill:#e7e7ef" width="7.86" height="7.86" x="32" y="96" />
<rect style="fill:#ffffff" width="7.13" height="7.13" x="32" y="104" />
<rect style="fill:#ffffff" width="7.52" height="7.52" x="32" y="112" />
<rect style="fill:#ffffff" width="7.57" height="7.57" x="32" y="120" />
<rect style="fill:#ffffff" width="7.33" height="7.33" x="32" y="128" />
<rect style="fill:#ffffff" width="7.15" height="7.15" x="32" y="136" />
<rect style="fill:#ffffff" width="7.87" height="7.87" x="32" y="144" />
<rect style="fill:#ffffff" width="7.24" height="7.24" x="32" y="152" />
<rect style="fill:#ffffff" width="7.41" height="7.41" x="32" y="160" />
<rect style="fill:#ffffff" width="7.06" height="7.06" x="32" y="168" />
<rect style="fill:#ffffff" width="7.21" height="7.21" x="32" y="176" />
<rect style="fill:#ffffff" width="7.61" height="7.61" x="32" y="184" />
<rect style="fill:#ffffff" width="7.77" height="7.77" x="32" y="192" />
<rect style="fill:#ffffff" width="7.53" height="7.53" x="32" y="200" />
<rect style="fill:#ffffff" width="7.99" height="7.99" x="32" y="208" />
<rect style="fill:#ffffff" width="7.14" height="7.14" x="32" y="216" />
<rect style="fill:#ced6de" width="7.37" height="7.37" x="32" y="224" />
<rect style="fill:#63739c" width="7.77" height="7.77" x="32" y="232" />
<rect style="fill:#10296b" width="7.09" height="7.09" x="32" y="240" />
<rect style="fill:#08216b" width="7.11" height="7.11" x="32" y="248" />
<rect style="fill:#08216b" width="7.5" height="7.5" x="40" y="0" />
<rect style="fill:#08216b" width="7.0" height="7.0" x="40" y="8" />
<rect style="fill:#08216b" width="7.46" height="7.46" x="40" y="16" />
<rect style="fill:#08216b" width="7.47" height="7.47" x="40" y="24" />
<rect style="fill:#08216b" width="7.8" height="7.8" x="40" y="32" />
<rect style="fill:#08216b" width="7.92" height="7.92" x="40" y="40" />
<rect style="fill:#08216b" width="7.58" height="7.58" x="40" y="48" />
<rect style="fill:#08216b" width="7.31" height="7.31" x="40" y="56" />
<rect style="fill:#08216b" width="7.14" height="7.14" x="40" y="64" />
<rect style="fill:#08216b" width="7.95" height="7.95" x="40" y="72" />
<rect style="fill:#102973" width="7.14" height="7.14" x="40" y="80" />
<rect style="fill:#6373a5" width="7.9" height="7.9" x="40" y="88" />
<rect style="fill:#b5bdd6" width="7.9399999999999995" height="7.9399999999999995" x="40" y="96" />
<rect style="fill:#dee7ef" width="7.37" height="7.37" x="40" y="104" />
<rect style="fill:#cecede" width="7.8" height="7.8" x="40" y="112" />
<rect style="fill:#b5bdd6" width="7.82" height="7.82" x="40" y="120" />
<rect style="fill:#b5bdce" width="7.08" height="7.08" x="40" y="128" />
<rect style="fill:#b5bdce" width="7.5" height="7.5" x="40" y="136" />
<rect style="fill:#b5bdce" width="7.95" height="7.95" x="40" y="144" />
<rect style="fill:#b5bdce" width="7.18" height="7.18" x="40" y="152" />
<rect style="fill:#adb5ce" width="7.14" height="7.14" x="40" y="160" />
<rect style="fill:#a5adc6" width="7.55" height="7.55" x="40" y="168" />
<rect style="fill:#a5adc6" width="7.5" height="7.5" x="40" y="176" />
<rect style="fill:#a5adc6" width="7.12" height="7.12" x="40" y="184" />
<rect style="fill:#9ca5c6" width="7.36" height="7.36" x="40" y="192" />
<rect style="fill:#b5bdd6" width="7.62" height="7.62" x="40" y="200" />
<rect style="fill:#f7f7f7" width="7.86" height="7.86" x="40" y="208" />
<rect style="fill:#c6cede" width="7.4" height="7.4" x="40" y="216" />
<rect style="fill:#8494b5" width="7.95" height="7.95" x="40" y="224" />
<rect style="fill:#314a84" width="7.32" height="7.32" x="40" y="232" />
<rect style="fill:#10296b" width="7.15" height="7.15" x="40" y="240" />
<rect style="fill:#08216b" width="7.43" height="7.43" x="40" y="248" />
<rect style="fill:#08216b" width="7.63" height="7.63" x="48" y="0" />
<rect style="fill:#08216b" width="7.51" height="7.51" x="48" y="8" />
<rect style="fill:#08216b" width="7.52" height="7.52" x="48" y="16" />
<rect style="fill:#08216b" width="7.2" height="7.2" x="48" y="24" />
<rect style="fill:#08216b" width="7.51" height="7.51" x="48" y="32" />
<rect style="fill:#08216b" width="7.82" height="7.82" x="48" y="40" />
<rect style="fill:#08216b" width="7.59" height="7.59" x="48" y="48" />
<rect style="fill:#08216b" width="7.72" height="7.72" x="48" y="56" />
<rect style="fill:#08216b" width="7.99" height="7.99" x="48" y="64" />
<rect style="fill:#08216b" width="7.43" height="7.43" x="48" y="72" />
<rect style="fill:#183173" width="7.09" height="7.09" x="48" y="80" />
<rect style="fill:#7384ad" width="7.36" height="7.36" x="48" y="88" />
<rect style="fill:#bdc6d6" width="7.77" height="7.77" x="48" y="96" />
<rect style="fill:#dedee7" width="7.13" height="7.13" x="48" y="104" />
<rect style="fill:#9ca5c6" width="7.63" height="7.63" x="48" y="112" />
<rect style="fill:#5a6b9c" width="7.77" height="7.77" x="48" y="120" />
<rect style="fill:#4a5a94" width="7.32" height="7.32" x="48" y="128" />
<rect style="fill:#4a5a94" width="7.7" height="7.7" x="48" y="136" />
<rect style="fill:#4a5a94" width="7.21" height="7.21" x="48" y="144" />
<rect style="fill:#4a5a94" width="7.6" height="7.6" x="48" y="152" />
<rect style="fill:#42528c" width="7.06" height="7.06" x="48" y="160" />
<rect style="fill:#394a84" width="7.51" height="7.51" x="48" y="168" />
<rect style="fill:#394a84" width="7.44" height="7.44" x="48" y="176" />
<rect style="fill:#314284" width="7.91" height="7.91" x="48" y="184" />
<rect style="fill:#314284" width="7.29" height="7.29" x="48" y="192" />
<rect style="fill:#6373a5" width="7.49" height="7.49" x="48" y="200" />
<rect style="fill:#9ca5c6" width="7.78" height="7.78" x="48" y="208" />
<rect style="fill:#6b7ba5" width="7.9" height="7.9" x="48" y="216" />
<rect style="fill:#314284" width="7.2" height="7.2" x="48" y="224" />
<rect style="fill:#10296b" width="7.83" height="7.83" x="48" y="232" />
<rect style="fill:#08216b" width="7.63" height="7.63" x="48" y="240" />
<rect style="fill:#08216b" width="7.32" height="7.32" x="48" y="248" />
<rect style="fill:#08216b" width="7.31" height="7.31" x="56" y="0" />
<rect style="fill:#08216b" width="7.07" height="7.07" x="56" y="8" />
<rect style="fill:#08216b" width="7.74" height="7.74" x="56" y="16" />
<rect style="fill:#08216b" width="7.83" height="7.83" x="56" y="24" />
<rect style="fill:#08216b" width="7.24" height="7.24" x="56" y="32" />
<rect style="fill:#08216b" width="7.78" height="7.78" x="56" y="40" />
<rect style="fill:#08216b" width="7.8" height="7.8" x="56" y="48" />
<rect style="fill:#08216b" width="7.3" height="7.3" x="56" y="56" />
<rect style="fill:#08216b" width="7.07" height="7.07" x="56" y="64" />
<rect style="fill:#10296b" width="7.43" height="7.43" x="56" y="72" />
<rect style="fill:#4a6394" width="7.6899999999999995" height="7.6899999999999995" x="56" y="80" />
<rect style="fill:#adb5ce" width="7.49" height="7.49" x="56" y="88" />
<rect style="fill:#f7ffff" width="7.03" height="7.03" x="56" y="96" />
<rect style="fill:#dee7ef" width="7.11" height="7.11" x="56" y="104" />
<rect style="fill:#949cbd" width="7.44" height="7.44" x="56" y="112" />
<rect style="fill:#314284" width="7.55" height="7.55" x="56" y="120" />
<rect style="fill:#10296b" width="7.4" height="7.4" x="56" y="128" />
<rect style="fill:#10296b" width="7.83" height="7.83" x="56" y="136" />
<rect style="fill:#10296b" width="7.9" height="7.9" x="56" y="144" />
<rect style="fill:#10296b" width="7.08" height="7.08" x="56" y="152" />
<rect style="fill:#10296b" width="7.97" height="7.97" x="56" y="160" />
<rect style="fill:#10296b" width="7.68" height="7.68" x="56" y="168" />
<rect style="fill:#08216b" width="7.22" height="7.22" x="56" y="176" />
<rect style="fill:#08216b" width="7.1" height="7.1" x="56" y="184" />
<rect style="fill:#10296b" width="7.87" height="7.87" x="56" y="192" />
<rect style="fill:#183173" width="7.15" height="7.15" x="56" y="200" />
<rect style="fill:#314284" width="7.3" height="7.3" x="56" y="208" />
<rect style="fill:#183173" width="7.6899999999999995" height="7.6899999999999995" x="56" y="216" />
<rect style="fill:#10296b" width="7.33" height="7.33" x="56" y="224" />
<rect style="fill:#08216b" width="7.98" height="7.98" x="56" y="232" />
<rect style="fill:#08216b" width="7.58" height="7.58" x="56" y="240" />
<rect style="fill:#08216b" width="7.27" height="7.27" x="56" y="248" />
<rect style="fill:#08216b" width="7.05" height="7.05" x="64" y="0" />
<rect style="fill:#08216b" width="7.82" height="7.82" x="64" y="8" />
<rect style="fill:#08216b" width="7.97" height="7.97" x="64" y="16" />
<rect style="fill:#08216b" width="7.13" height="7.13" x="64" y="24" />
<rect style="fill:#08216b" width="7.27" height="7.27" x="64" y="32" />
<rect style="fill:#08216b" width="7.48" height="7.48" x="64" y="40" />
<rect style="fill:#08216b" width="7.71" height="7.71" x="64" y="48" />
<rect style="fill:#08216b" width="7.36" height="7.36" x="64" y="56" />
<rect style="fill:#08216b" width="7.34" height="7.34" x="64" y="64" />
<rect style="fill:#10296b" width="7.05" height="7.05" x="64" y="72" />
<rect style="fill:#6b7ba5" width="7.76" height="7.76" x="64" y="80" />
<rect style="fill:#dedee7" width="7.82" height="7.82" x="64" y="88" />
<rect style="fill:#ffffff" width="7.96" height="7.96" x="64" y="96" />
<rect style="fill:#ffffff" width="7.7" height="7.7" x="64" y="104" />
<rect style="fill:#bdc6d6" width="7.75" height="7.75" x="64" y="112" />
<rect style="fill:#6b7ba5" width="7.16" height="7.16" x="64" y="120" />
<rect style="fill:#29427b" width="7.0" height="7.0" x="64" y="128" />
<rect style="fill:#183173" width="7.05" height="7.05" x="64" y="136" />
<rect style="fill:#183173" width="7.9" height="7.9" x="64" y="144" />
<rect style="fill:#183173" width="7.37" height="7.37" x="64" y="152" />
<rect style="fill:#183173" width="7.13" height="7.13" x="64" y="160" />
<rect style="fill:#183173" width="7.6899999999999995" height="7.6899999999999995" x="64" y="168" />
<rect style="fill:#183173" width="7.07" height="7.07" x="64" y="176" />
<rect style="fill:#183173" width="7.43" height="7.43" x="64" y="184" />
<rect style="fill:#21397b" width="7.87" height="7.87" x="64" y="192" />
<rect style="fill:#39528c" width="7.51" height="7.51" x="64" y="200" />
<rect style="fill:#5a6b9c" width="7.9399999999999995" height="7.9399999999999995" x="64" y="208" />
<rect style="fill:#4a6394" width="7.11" height="7.11" x="64" y="216" />
<rect style="fill:#183173" width="7.92" height="7.92" x="64" y="224" />
<rect style="fill:#08216b" width="7.65" height="7.65" x="64" y="232" />
<rect style="fill:#08216b" width="7.68" height="7.68" x="64" y="240" />
<rect style="fill:#08216b" width="7.1" height="7.1" x="64" y="248" />
<rect style="fill:#08216b" width="7.08" height="7.08" x="72" y="0" />
<rect style="fill:#08216b" width="7.74" height="7.74" x="72" y="8" />
<rect style="fill:#08216b" width="7.6" height="7.6" x="72" y="16" />
<rect style="fill:#08216b" width="7.23" height="7.23" x="72" y="24" />
<rect style="fill:#08216b" width="7.23" height="7.23" x="72" y="32" />
<rect style="fill:#08216b" width="7.16" height="7.16" x="72" y="40" />
<rect style="fill:#08216b" width="7.33" height="7.33" x="72" y="48" />
<rect style="fill:#08216b" width="7.47" height="7.47" x="72" y="56" />
<rect style="fill:#08216b" width="7.35" height="7.35" x="72" y="64" />
<rect style="fill:#10296b" width="7.2" height="7.2" x="72" y="72" />
<rect style="fill:#425a8c" width="7.5600000000000005" height="7.5600000000000005" x="72" y="80" />
<rect style="fill:#adb5ce" width="7.97" height="7.97" x="72" y="88" />
<rect style="fill:#f7f7f7" width="7.0" height="7.0" x="72" y="96" />
<rect style="fill:#ffffff" width="7.91" height="7.91" x="72" y="104" />
<rect style="fill:#efeff7" width="7.85" height="7.85" x="72" y="112" />
<rect style="fill:#b5bdd6" width="7.05" height="7.05" x="72" y="120" />
<rect style="fill:#94a5bd" width="7.8100000000000005" height="7.8100000000000005" x="72" y="128" />
<rect style="fill:#8c9cbd" width="7.93" height="7.93" x="72" y="136" />
<rect style="fill:#8c9cbd" width="7.34" height="7.34" x="72" y="144" />
<rect style="fill:#8c9cbd" width="7.7" height="7.7" x="72" y="152" />
<rect style="fill:#8c9cbd" width="7.34" height="7.34" x="72" y="160" />
<rect style="fill:#8c9cbd" width="7.74" height="7.74" x="72" y="168" />
<rect style="fill:#8c9cbd" width="7.36" height="7.36" x="72" y="176" />
<rect style="fill:#8c9cbd" width="7.29" height="7.29" x="72" y="184" />
<rect style="fill:#949cbd" width="7.95" height="7.95" x="72" y="192" />
<rect style="fill:#a5adc6" width="7.76" height="7.76" x="72" y="200" />
<rect style="fill:#c6cede" width="7.25" height="7.25" x="72" y="208" />
<rect style="fill:#b5bdce" width="7.86" height="7.86" x="72" y="216" />
<rect style="fill:#63739c" width="7.25" height="7.25" x="72" y="224" />
<rect style="fill:#183173" width="7.3" height="7.3" x="72" y="232" />
<rect style="fill:#08216b" width="7.95" height="7.95" x="72" y="240" />
<rect style="fill:#08216b" width="7.3" height="7.3" x="72" y="248" />
<rect style="fill:#08216b" width="7.54" height="7.54" x="80" y="0" />
<rect style="fill:#08216b" width="7.93" height="7.93" x="80" y="8" />
<rect style="fill:#08216b" width="7.14" height="7.14" x="80" y="16" />
<rect style="fill:#08216b" width="7.6" height="7.6" x="80" y="24" />
<rect style="fill:#08216b" width="7.93" height="7.93" x="80" y="32" />
<rect style="fill:#08216b" width="7.86" height="7.86" x="80" y="40" />
<rect style="fill:#08216b" width="7.23" height="7.23" x="80" y="48" />
<rect style="fill:#08216b" width="7.75" height="7.75" x="80" y="56" />
<rect style="fill:#08216b" width="7.49" height="7.49" x="80" y="64" />
<rect style="fill:#08216b" width="7.87" height="7.87" x="80" y="72" />
<rect style="fill:#183173" width="7.53" height="7.53" x="80" y="80" />
<rect style="fill:#6373a5" width="7.79" height="7.79" x="80" y="88" />
<rect style="fill:#b5bdd6" width="7.06" height="7.06" x="80" y="96" />
<rect style="fill:#ffffff" width="7.78" height="7.78" x="80" y="104" />
<rect style="fill:#ffffff" width="7.92" height="7.92" x="80" y="112" />
<rect style="fill:#ffffff" width="7.02" height="7.02" x="80" y="120" />
<rect style="fill:#ffffff" width="7.77" height="7.77" x="80" y="128" />
<rect style="fill:#ffffff" width="7.88" height="7.88" x="80" y="136" />
<rect style="fill:#ffffff" width="7.12" height="7.12" x="80" y="144" />
<rect style="fill:#ffffff" width="7.21" height="7.21" x="80" y="152" />
<rect style="fill:#ffffff" width="7.33" height="7.33" x="80" y="160" />
<rect style="fill:#ffffff" width="7.9" height="7.9" x="80" y="168" />
<rect style="fill:#ffffff" width="7.05" height="7.05" x="80" y="176" />
<rect style="fill:#ffffff" width="7.0" height="7.0" x="80" y="184" />
<rect style="fill:#ffffff" width="7.5" height="7.5" x="80" y="192" />
<rect style="fill:#ffffff" width="7.26" height="7.26" x="80" y="200" />
<rect style="fill:#ffffff" width="7.38" height="7.38" x="80" y="208" />
<rect style="fill:#f7f7f7" width="7.15" height="7.15" x="80" y="216" />
<rect style="fill:#adb5ce" width="7.9" height="7.9" x="80" y="224" />
<rect style="fill:#425a8c" width="7.79" height="7.79" x="80" y="232" />
<rect style="fill:#10296b" width="7.28" height="7.28" x="80" y="240" />
<rect style="fill:#08216b" width="7.02" height="7.02" x="80" y="248" />
<rect style="fill:#08216b" width="7.25" height="7.25" x="88" y="0" />
<rect style="fill:#08216b" width="7.41" height="7.41" x="88" y="8" />
<rect style="fill:#08216b" width="7.4" height="7.4" x="88" y="16" />
<rect style="fill:#08216b" width="7.47" height="7.47" x="88" y="24" />
<rect style="fill:#08216b" width="7.74" height="7.74" x="88" y="32" />
<rect style="fill:#08216b" width="7.34" height="7.34" x="88" y="40" />
<rect style="fill:#08216b" width="7.73" height="7.73" x="88" y="48" />
<rect style="fill:#08216b" width="7.15" height="7.15" x="88" y="56" />
<rect style="fill:#08216b" width="7.79" height="7.79" x="88" y="64" />
<rect style="fill:#08216b" width="7.51" height="7.51" x="88" y="72" />
<rect style="fill:#08216b" width="7.1" height="7.1" x="88" y="80" />
<rect style="fill:#21397b" width="7.99" height="7.99" x="88" y="88" />
<rect style="fill:#848cb5" width="7.75" height="7.75" x="88" y="96" />
<rect style="fill:#c6cede" width="7.32" height="7.32" x="88" y="104" />
<rect style="fill:#ffffff" width="7.86" height="7.86" x="88" y="112" />
<rect style="fill:#ffffff" width="7.9399999999999995" height="7.9399999999999995" x="88" y="120" />
<rect style="fill:#ffffff" width="7.47" height="7.47" x="88" y="128" />
<rect style="fill:#ffffff" width="7.97" height="7.97" x="88" y="136" />
<rect style="fill:#ffffff" width="7.52" height="7.52" x="88" y="144" />
<rect style="fill:#ffffff" width="7.42" height="7.42" x="88" y="152" />
<rect style="fill:#ffffff" width="7.25" height="7.25" x="88" y="160" />
<rect style="fill:#ffffff" width="7.16" height="7.16" x="88" y="168" />
<rect style="fill:#ffffff" width="7.63" height="7.63" x="88" y="176" />
<rect style="fill:#ffffff" width="7.32" height="7.32" x="88" y="184" />
<rect style="fill:#ffffff" width="7.08" height="7.08" x="88" y="192" />
<rect style="fill:#ffffff" width="7.49" height="7.49" x="88" y="200" />
<rect style="fill:#ffffff" width="7.01" height="7.01" x="88" y="208" />
<rect style="fill:#ffffff" width="7.08" height="7.08" x="88" y="216" />
<rect style="fill:#dedee7" width="7.29" height="7.29" x="88" y="224" />
<rect style="fill:#6b7ba5" width="7.39" height="7.39" x="88" y="232" />
<rect style="fill:#10296b" width="7.57" height="7.57" x="88" y="240" />
<rect style="fill:#08216b" width="7.17" height="7.17" x="88" y="248" />
<rect style="fill:#08216b" width="7.41" height="7.41" x="96" y="0" />
<rect style="fill:#08216b" width="7.87" height="7.87" x="96" y="8" />
<rect style="fill:#08216b" width="7.79" height="7.79" x="96" y="16" />
<rect style="fill:#08216b" width="7.35" height="7.35" x="96" y="24" />
<rect style="fill:#08216b" width="7.19" height="7.19" x="96" y="32" />
<rect style="fill:#08216b" width="7.59" height="7.59" x="96" y="40" />
<rect style="fill:#08216b" width="7.7" height="7.7" x="96" y="48" />
<rect style="fill:#08216b" width="7.99" height="7.99" x="96" y="56" />
<rect style="fill:#08216b" width="7.92" height="7.92" x="96" y="64" />
<rect style="fill:#08216b" width="7.25" height="7.25" x="96" y="72" />
<rect style="fill:#08216b" width="7.13" height="7.13" x="96" y="80" />
<rect style="fill:#21397b" width="7.53" height="7.53" x="96" y="88" />
<rect style="fill:#7384ad" width="7.7" height="7.7" x="96" y="96" />
<rect style="fill:#bdc6d6" width="7.63" height="7.63" x="96" y="104" />
<rect style="fill:#b5bdd6" width="7.42" height="7.42" x="96" y="112" />
<rect style="fill:#a5adc6" width="7.45" height="7.45" x="96" y="120" />
<rect style="fill:#9cadc6" width="7.58" height="7.58" x="96" y="128" />
<rect style="fill:#949cbd" width="7.03" height="7.03" x="96" y="136" />
<rect style="fill:#8c9cbd" width="7.5600000000000005" height="7.5600000000000005" x="96" y="144" />
<rect style="fill:#8c9cbd" width="7.8" height="7.8" x="96" y="152" />
<rect style="fill:#8c9cbd" width="7.75" height="7.75" x="96" y="160" />
<rect style="fill:#8c9cbd" width="7.2" height="7.2" x="96" y="168" />
<rect style="fill:#8c9cbd" width="7.44" height="7.44" x="96" y="176" />
<rect style="fill:#949cbd" width="7.42" height="7.42" x="96" y="184" />
<rect style="fill:#a5adc6" width="7.31" height="7.31" x="96" y="192" />
<rect style="fill:#b5bdd6" width="7.03" height="7.03" x="96" y="200" />
<rect style="fill:#d6dee7" width="7.33" height="7.33" x="96" y="208" />
<rect style="fill:#e7e7ef" width="7.62" height="7.62" x="96" y="216" />
<rect style="fill:#a5adc6" width="7.8" height="7.8" x="96" y="224" />
<rect style="fill:#425a8c" width="7.9" height="7.9" x="96" y="232" />
<rect style="fill:#10296b" width="7.47" height="7.47" x="96" y="240" />
<rect style="fill:#08216b" width="7.42" height="7.42" x="96" y="248" />
<rect style="fill:#08216b" width="7.03" height="7.03" x="104" y="0" />
<rect style="fill:#08216b" width="7.19" height="7.19" x="104" y="8" />
<rect style="fill:#08216b" width="7.59" height="7.59" x="104" y="16" />
<rect style="fill:#08216b" width="7.27" height="7.27" x="104" y="24" />
<rect style="fill:#08216b" width="7.74" height="7.74" x="104" y="32" />
<rect style="fill:#08216b" width="7.5600000000000005" height="7.5600000000000005" x="104" y="40" />
<rect style="fill:#08216b" width="7.11" height="7.11" x="104" y="48" />
<rect style="fill:#08216b" width="7.87" height="7.87" x="104" y="56" />
<rect style="fill:#08216b" width="7.25" height="7.25" x="104" y="64" />
<rect style="fill:#08216b" width="7.58" height="7.58" x="104" y="72" />
<rect style="fill:#102973" width="7.8100000000000005" height="7.8100000000000005" x="104" y="80" />
<rect style="fill:#5a6b9c" width="7.6899999999999995" height="7.6899999999999995" x="104" y="88" />
<rect style="fill:#a5b5ce" width="7.42" height="7.42" x="104" y="96" />
<rect style="fill:#bdc6d6" width="7.75" height="7.75" x="104" y="104" />
<rect style="fill:#7b84ad" width="7.16" height="7.16" x="104" y="112" />
<rect style="fill:#39528c" width="7.26" height="7.26" x="104" y="120" />
<rect style="fill:#314284" width="7.37" height="7.37" x="104" y="128" />
<rect style="fill:#183173" width="7.49" height="7.49" x="104" y="136" />
<rect style="fill:#183173" width="7.82" height="7.82" x="104" y="144" />
<rect style="fill:#183173" width="7.62" height="7.62" x="104" y="152" />
<rect style="fill:#183173" width="7.19" height="7.19" x="104" y="160" />
<rect style="fill:#183173" width="7.43" height="7.43" x="104" y="168" />
<rect style="fill:#183173" width="7.15" height="7.15" x="104" y="176" />
<rect style="fill:#183173" width="7.12" height="7.12" x="104" y="184" />
<rect style="fill:#314a84" width="7.5600000000000005" height="7.5600000000000005" x="104" y="192" />
<rect style="fill:#5a6b9c" width="7.62" height="7.62" x="104" y="200" />
<rect style="fill:#8494b5" width="7.83" height="7.83" x="104" y="208" />
<rect style="fill:#8c9cbd" width="7.77" height="7.77" x="104" y="216" />
<rect style="fill:#526394" width="7.91" height="7.91" x="104" y="224" />
<rect style="fill:#183173" width="7.5600000000000005" height="7.5600000000000005" x="104" y="232" />
<rect style="fill:#08216b" width="7.55" height="7.55" x="104" y="240" />
<rect style="fill:#08216b" width="7.39" height="7.39" x="104" y="248" />
<rect style="fill:#08216b" width="7.11" height="7.11" x="112" y="0" />
<rect style="fill:#08216b" width="7.31" height="7.31" x="112" y="8" />
<rect style="fill:#08216b" width="7.77" height="7.77" x="112" y="16" />
<rect style="fill:#08216b" width="7.92" height="7.92" x="112" y="24" />
<rect style="fill:#08216b" width="7.7" height="7.7" x="112" y="32" />
<rect style="fill:#08216b" width="7.86" height="7.86" x="112" y="40" />
<rect style="fill:#08216b" width="7.05" height="7.05" x="112" y="48" />
<rect style="fill:#08216b" width="7.77" height="7.77" x="112" y="56" />
<rect style="fill:#08216b" width="7.44" height="7.44" x="112" y="64" />
<rect style="fill:#10296b" width="7.32" height="7.32" x="112" y="72" />
<rect style="fill:#42528c" width="7.28" height="7.28" x="112" y="80" />
<rect style="fill:#a5adc6" width="7.89" height="7.89" x="112" y="88" />
<rect style="fill:#efeff7" width="7.77" height="7.77" x="112" y="96" />
<rect style="fill:#c6c6de" width="7.18" height="7.18" x="112" y="104" />
<rect style="fill:#7384ad" width="7.32" height="7.32" x="112" y="112" />
<rect style="fill:#183173" width="7.42" height="7.42" x="112" y="120" />
<rect style="fill:#10296b" width="7.12" height="7.12" x="112" y="128" />
<rect style="fill:#08216b" width="7.16" height="7.16" x="112" y="136" />
<rect style="fill:#08216b" width="7.24" height="7.24" x="112" y="144" />
<rect style="fill:#08216b" width="7.6" height="7.6" x="112" y="152" />
<rect style="fill:#08216b" width="7.03" height="7.03" x="112" y="160" />
<rect style="fill:#08216b" width="7.66" height="7.66" x="112" y="168" />
<rect style="fill:#08216b" width="7.92" height="7.92" x="112" y="176" />
<rect style="fill:#08216b" width="7.2" height="7.2" x="112" y="184" />
<rect style="fill:#10296b" width="7.83" height="7.83" x="112" y="192" />
<rect style="fill:#102973" width="7.45" height="7.45" x="112" y="200" />
<rect style="fill:#21397b" width="7.25" height="7.25" x="112" y="208" />
<rect style="fill:#21397b" width="7.75" height="7.75" x="112" y="216" />
<rect style="fill:#10296b" width="7.34" height="7.34" x="112" y="224" />
<rect style="fill:#08216b" width="7.79" height="7.79" x="112" y="232" />
<rect style="fill:#08216b" width="7.1" height="7.1" x="112" y="240" />
<rect style="fill:#08216b" width="7.07" height="7.07" x="112" y="248" />
<rect style="fill:#08216b" width="7.88" height="7.88" x="120" y="0" />
<rect style="fill:#08216b" width="7.37" height="7.37" x="120" y="8" />
<rect style="fill:#08216b" width="7.28" height="7.28" x="120" y="16" />
<rect style="fill:#08216b" width="7.57" height="7.57" x="120" y="24" />
<rect style="fill:#08216b" width="7.74" height="7.74" x="120" y="32" />
<rect style="fill:#08216b" width="7.9399999999999995" height="7.9399999999999995" x="120" y="40" />
<rect style="fill:#08216b" width="7.19" height="7.19" x="120" y="48" />
<rect style="fill:#08216b" width="7.23" height="7.23" x="120" y="56" />
<rect style="fill:#08216b" width="7.98" height="7.98" x="120" y="64" />
<rect style="fill:#10296b" width="7.22" height="7.22" x="120" y="72" />
<rect style="fill:#6b7ba5" width="7.63" height="7.63" x="120" y="80" />
<rect style="fill:#d6dee7" width="7.47" height="7.47" x="120" y="88" />
<rect style="fill:#ffffff" width="7.23" height="7.23" x="120" y="96" />
<rect style="fill:#e7e7ef" width="7.68" height="7.68" x="120" y="104" />
<rect style="fill:#9ca5c6" width="7.2" height="7.2" x="120" y="112" />
<rect style="fill:#526394" width="7.09" height="7.09" x="120" y="120" />
<rect style="fill:#394a84" width="7.68" height="7.68" x="120" y="128" />
<rect style="fill:#394a84" width="7.02" height="7.02" x="120" y="136" />
<rect style="fill:#314a84" width="7.43" height="7.43" x="120" y="144" />
<rect style="fill:#29427b" width="7.33" height="7.33" x="120" y="152" />
<rect style="fill:#183173" width="7.33" height="7.33" x="120" y="160" />
<rect style="fill:#183173" width="7.55" height="7.55" x="120" y="168" />
<rect style="fill:#183173" width="7.86" height="7.86" x="120" y="176" />
<rect style="fill:#183173" width="7.7" height="7.7" x="120" y="184" />
<rect style="fill:#29427b" width="7.18" height="7.18" x="120" y="192" />
<rect style="fill:#42528c" width="7.08" height="7.08" x="120" y="200" />
<rect style="fill:#4a5a94" width="7.37" height="7.37" x="120" y="208" />
<rect style="fill:#21397b" width="7.29" height="7.29" x="120" y="216" />
<rect style="fill:#10296b" width="7.82" height="7.82" x="120" y="224" />
<rect style="fill:#08216b" width="7.22" height="7.22" x="120" y="232" />
<rect style="fill:#08216b" width="7.34" height="7.34" x="120" y="240" />
<rect style="fill:#08216b" width="7.32" height="7.32" x="120" y="248" />
<rect style="fill:#08216b" width="7.92" height="7.92" x="128" y="0" />
<rect style="fill:#08216b" width="7.44" height="7.44" x="128" y="8" />
<rect style="fill:#08216b" width="7.8" height="7.8" x="128" y="16" />
<rect style="fill:#08216b" width="7.97" height="7.97" x="128" y="24" />
<rect style="fill:#08216b" width="7.77" height="7.77" x="128" y="32" />
<rect style="fill:#08216b" width="7.67" height="7.67" x="128" y="40" />
<rect style="fill:#08216b" width="7.89" height="7.89" x="128" y="48" />
<rect style="fill:#08216b" width="7.51" height="7.51" x="128" y="56" />
<rect style="fill:#08216b" width="7.09" height="7.09" x="128" y="64" />
<rect style="fill:#10296b" width="7.37" height="7.37" x="128" y="72" />
<rect style="fill:#63739c" width="7.16" height="7.16" x="128" y="80" />
<rect style="fill:#c6c6de" width="7.27" height="7.27" x="128" y="88" />
<rect style="fill:#ffffff" width="7.22" height="7.22" x="128" y="96" />
<rect style="fill:#ffffff" width="7.5600000000000005" height="7.5600000000000005" x="128" y="104" />
<rect style="fill:#d6d6e7" width="7.97" height="7.97" x="128" y="112" />
<rect style="fill:#adb5ce" width="7.21" height="7.21" x="128" y="120" />
<rect style="fill:#a5adc6" width="7.63" height="7.63" x="128" y="128" />
<rect style="fill:#a5adc6" width="7.59" height="7.59" x="128" y="136" />
<rect style="fill:#a5adc6" width="7.5600000000000005" height="7.5600000000000005" x="128" y="144" />
<rect style="fill:#9ca5c6" width="7.82" height="7.82" x="128" y="152" />
<rect style="fill:#949cbd" width="7.45" height="7.45" x="128" y="160" />
<rect style="fill:#8c9cbd" width="7.05" height="7.05" x="128" y="168" />
<rect style="fill:#8c9cbd" width="7.8100000000000005" height="7.8100000000000005" x="128" y="176" />
<rect style="fill:#949cbd" width="7.15" height="7.15" x="128" y="184" />
<rect style="fill:#9ca5c6" width="7.83" height="7.83" x="128" y="192" />
<rect style="fill:#adb5ce" width="7.05" height="7.05" x="128" y="200" />
<rect style="fill:#b5bdd6" width="7.6" height="7.6" x="128" y="208" />
<rect style="fill:#7384ad" width="7.2" height="7.2" x="128" y="216" />
<rect style="fill:#29427b" width="7.36" height="7.36" x="128" y="224" />
<rect style="fill:#08216b" width="7.63" height="7.63" x="128" y="232" />
<rect style="fill:#08216b" width="7.49" height="7.49" x="128" y="240" />
<rect style="fill:#08216b" width="7.63" height="7.63" x="128" y="248" />
<rect style="fill:#08216b" width="7.43" height="7.43" x="136" y="0" />
<rect style="fill:#08216b" width="7.15" height="7.15" x="136" y="8" />
<rect style="fill:#08216b" width="7.48" height="7.48" x="136" y="16" />
<rect style="fill:#08216b" width="7.6" height="7.6" x="136" y="24" />
<rect style="fill:#08216b" width="7.1" height="7.1" x="136" y="32" />
<rect style="fill:#08216b" width="7.5" height="7.5" x="136" y="40" />
<rect style="fill:#08216b" width="7.85" height="7.85" x="136" y="48" />
<rect style="fill:#08216b" width="7.97" height="7.97" x="136" y="56" />
<rect style="fill:#08216b" width="7.12" height="7.12" x="136" y="64" />
<rect style="fill:#08216b" width="7.9" height="7.9" x="136" y="72" />
<rect style="fill:#314284" width="7.8100000000000005" height="7.8100000000000005" x="136" y="80" />
<rect style="fill:#8c94b5" width="7.25" height="7.25" x="136" y="88" />
<rect style="fill:#d6dee7" width="7.99" height="7.99" x="136" y="96" />
<rect style="fill:#ffffff" width="7.54" height="7.54" x="136" y="104" />
<rect style="fill:#ffffff" width="7.98" height="7.98" x="136" y="112" />
<rect style="fill:#ffffff" width="7.18" height="7.18" x="136" y="120" />
<rect style="fill:#ffffff" width="7.12" height="7.12" x="136" y="128" />
<rect style="fill:#ffffff" width="7.79" height="7.79" x="136" y="136" />
<rect style="fill:#ffffff" width="7.07" height="7.07" x="136" y="144" />
<rect style="fill:#ffffff" width="7.28" height="7.28" x="136" y="152" />
<rect style="fill:#ffffff" width="7.29" height="7.29" x="136" y="160" />
<rect style="fill:#ffffff" width="7.04" height="7.04" x="136" y="168" />
<rect style="fill:#ffffff" width="7.54" height="7.54" x="136" y="176" />
<rect style="fill:#ffffff" width="7.0" height="7.0" x="136" y="184" />
<rect style="fill:#ffffff" width="7.85" height="7.85" x="136" y="192" />
<rect style="fill:#ffffff" width="7.82" height="7.82" x="136" y="200" />
<rect style="fill:#ffffff" width="7.21" height="7.21" x="136" y="208" />
<rect style="fill:#bdc6d6" width="7.6" height="7.6" x="136" y="216" />
<rect style="fill:#6b7ba5" width="7.87" height="7.87" x="136" y="224" />
<rect style="fill:#183173" width="7.13" height="7.13" x="136" y="232" />
<rect style="fill:#08216b" width="7.21" height="7.21" x="136" y="240" />
<rect style="fill:#08216b" width="7.48" height="7.48" x="136" y="248" />
<rect style="fill:#08216b" width="7.06" height="7.06" x="144" y="0" />
<rect style="fill:#08216b" width="7.53" height="7.53" x="144" y="8" />
<rect style="fill:#08216b" width="7.76" height="7.76" x="144" y="16" />
<rect style="fill:#08216b" width="7.63" height="7.63" x="144" y="24" />
<rect style="fill:#08216b" width="7.74" height="7.74" x="144" y="32" />
<rect style="fill:#08216b" width="7.93" height="7.93" x="144" y="40" />
<rect style="fill:#08216b" width="7.0" height="7.0" x="144" y="48" />
<rect style="fill:#08216b" width="7.45" height="7.45" x="144" y="56" />
<rect style="fill:#08216b" width="7.75" height="7.75" x="144" y="64" />
<rect style="fill:#08216b" width="7.78" height="7.78" x="144" y="72" />
<rect style="fill:#10296b" width="7.31" height="7.31" x="144" y="80" />
<rect style="fill:#4a5a94" width="7.14" height="7.14" x="144" y="88" />
<rect style="fill:#a5b5ce" width="7.54" height="7.54" x="144" y="96" />
<rect style="fill:#f7f7f7" width="7.39" height="7.39" x="144" y="104" />
<rect style="fill:#ffffff" width="7.31" height="7.31" x="144" y="112" />
<rect style="fill:#ffffff" width="7.46" height="7.46" x="144" y="120" />
<rect style="fill:#ffffff" width="7.37" height="7.37" x="144" y="128" />
<rect style="fill:#ffffff" width="7.74" height="7.74" x="144" y="136" />
<rect style="fill:#ffffff" width="7.8100000000000005" height="7.8100000000000005" x="144" y="144" />
<rect style="fill:#ffffff" width="7.09" height="7.09" x="144" y="152" />
<rect style="fill:#ffffff" width="7.29" height="7.29" x="144" y="160" />
<rect style="fill:#ffffff" width="7.01" height="7.01" x="144" y="168" />
<rect style="fill:#ffffff" width="7.15" height="7.15" x="144" y="176" />
<rect style="fill:#ffffff" width="7.93" height="7.93" x="144" y="184" />
<rect style="fill:#ffffff" width="7.42" height="7.42" x="144" y="192" />
<rect style="fill:#ffffff" width="7.6" height="7.6" x="144" y="200" />
<rect style="fill:#ffffff" width="7.18" height="7.18" x="144" y="208" />
<rect style="fill:#f7f7f7" width="7.89" height="7.89" x="144" y="216" />
<rect style="fill:#adb5ce" width="7.14" height="7.14" x="144" y="224" />
<rect style="fill:#4a5a94" width="7.53" height="7.53" x="144" y="232" />
<rect style="fill:#10296b" width="7.51" height="7.51" x="144" y="240" />
<rect style="fill:#08216b" width="7.77" height="7.77" x="144" y="248" />
<rect style="fill:#08216b" width="7.99" height="7.99" x="152" y="0" />
<rect style="fill:#08216b" width="7.78" height="7.78" x="152" y="8" />
<rect style="fill:#08216b" width="7.78" height="7.78" x="152" y="16" />
<rect style="fill:#08216b" width="7.37" height="7.37" x="152" y="24" />
<rect style="fill:#08216b" width="7.16" height="7.16" x="152" y="32" />
<rect style="fill:#08216b" width="7.68" height="7.68" x="152" y="40" />
<rect style="fill:#08216b" width="7.06" height="7.06" x="152" y="48" />
<rect style="fill:#08216b" width="7.88" height="7.88" x="152" y="56" />
<rect style="fill:#08216b" width="7.08" height="7.08" x="152" y="64" />
<rect style="fill:#08216b" width="7.8100000000000005" height="7.8100000000000005" x="152" y="72" />
<rect style="fill:#08216b" width="7.48" height="7.48" x="152" y="80" />
<rect style="fill:#183173" width="7.04" height="7.04" x="152" y="88" />
<rect style="fill:#7b84ad" width="7.74" height="7.74" x="152" y="96" />
<rect style="fill:#d6d6e7" width="7.72" height="7.72" x="152" y="104" />
<rect style="fill:#c6cede" width="7.18" height="7.18" x="152" y="112" />
<rect style="fill:#adb5ce" width="7.64" height="7.64" x="152" y="120" />
<rect style="fill:#a5adc6" width="7.71" height="7.71" x="152" y="128" />
<rect style="fill:#949cbd" width="7.17" height="7.17" x="152" y="136" />
<rect style="fill:#8c9cbd" width="7.0" height="7.0" x="152" y="144" />
<rect style="fill:#8c9cbd" width="7.48" height="7.48" x="152" y="152" />
<rect style="fill:#8c9cbd" width="7.96" height="7.96" x="152" y="160" />
<rect style="fill:#8c9cbd" width="7.38" height="7.38" x="152" y="168" />
<rect style="fill:#94a5bd" width="7.6899999999999995" height="7.6899999999999995" x="152" y="176" />
<rect style="fill:#a5adc6" width="7.85" height="7.85" x="152" y="184" />
<rect style="fill:#b5bdce" width="7.84" height="7.84" x="152" y="192" />
<rect style="fill:#dedee7" width="7.1" height="7.1" x="152" y="200" />
<rect style="fill:#ffffff" width="7.27" height="7.27" x="152" y="208" />
<rect style="fill:#ffffff" width="7.7" height="7.7" x="152" y="216" />
<rect style="fill:#dedee7" width="7.36" height="7.36" x="152" y="224" />
<rect style="fill:#6b7ba5" width="7.72" height="7.72" x="152" y="232" />
<rect style="fill:#10296b" width="7.8100000000000005" height="7.8100000000000005" x="152" y="240" />
<rect style="fill:#08216b" width="7.57" height="7.57" x="152" y="248" />
<rect style="fill:#08216b" width="7.04" height="7.04" x="160" y="0" />
<rect style="fill:#08216b" width="7.57" height="7.57" x="160" y="8" />
<rect style="fill:#08216b" width="7.49" height="7.49" x="160" y="16" />
<rect style="fill:#08216b" width="7.04" height="7.04" x="160" y="24" />
<rect style="fill:#08216b" width="7.62" height="7.62" x="160" y="32" />
<rect style="fill:#08216b" width="7.36" height="7.36" x="160" y="40" />
<rect style="fill:#08216b" width="7.21" height="7.21" x="160" y="48" />
<rect style="fill:#08216b" width="7.72" height="7.72" x="160" y="56" />
<rect style="fill:#08216b" width="7.1" height="7.1" x="160" y="64" />
<rect style="fill:#08216b" width="7.85" height="7.85" x="160" y="72" />
<rect style="fill:#10296b" width="7.78" height="7.78" x="160" y="80" />
<rect style="fill:#10296b" width="7.5" height="7.5" x="160" y="88" />
<rect style="fill:#394a84" width="7.21" height="7.21" x="160" y="96" />
<rect style="fill:#6b7ba5" width="7.96" height="7.96" x="160" y="104" />
<rect style="fill:#6373a5" width="7.68" height="7.68" x="160" y="112" />
<rect style="fill:#425a8c" width="7.01" height="7.01" x="160" y="120" />
<rect style="fill:#314a84" width="7.23" height="7.23" x="160" y="128" />
<rect style="fill:#21397b" width="7.85" height="7.85" x="160" y="136" />
<rect style="fill:#183173" width="7.16" height="7.16" x="160" y="144" />
<rect style="fill:#183173" width="7.01" height="7.01" x="160" y="152" />
<rect style="fill:#183173" width="7.19" height="7.19" x="160" y="160" />
<rect style="fill:#183173" width="7.21" height="7.21" x="160" y="168" />
<rect style="fill:#21397b" width="7.47" height="7.47" x="160" y="176" />
<rect style="fill:#394a84" width="7.5600000000000005" height="7.5600000000000005" x="160" y="184" />
<rect style="fill:#5a6b9c" width="7.51" height="7.51" x="160" y="192" />
<rect style="fill:#a5adc6" width="7.13" height="7.13" x="160" y="200" />
<rect style="fill:#efeff7" width="7.76" height="7.76" x="160" y="208" />
<rect style="fill:#ffffff" width="7.12" height="7.12" x="160" y="216" />
<rect style="fill:#c6cede" width="7.89" height="7.89" x="160" y="224" />
<rect style="fill:#63739c" width="7.55" height="7.55" x="160" y="232" />
<rect style="fill:#10296b" width="7.88" height="7.88" x="160" y="240" />
<rect style="fill:#08216b" width="7.75" height="7.75" x="160" y="248" />
<rect style="fill:#08216b" width="7.4" height="7.4" x="168" y="0" />
<rect style="fill:#08216b" width="7.86" height="7.86" x="168" y="8" />
<rect style="fill:#08216b" width="7.11" height="7.11" x="168" y="16" />
<rect style="fill:#08216b" width="7.64" height="7.64" x="168" y="24" />
<rect style="fill:#08216b" width="7.14" height="7.14" x="168" y="32" />
<rect style="fill:#08216b" width="7.6899999999999995" height="7.6899999999999995" x="168" y="40" />
<rect style="fill:#08216b" width="7.12" height="7.12" x="168" y="48" />
<rect style="fill:#08216b" width="7.78" height="7.78" x="168" y="56" />
<rect style="fill:#08216b" width="7.42" height="7.42" x="168" y="64" />
<rect style="fill:#102973" width="7.54" height="7.54" x="168" y="72" />
<rect style="fill:#394a84" width="7.53" height="7.53" x="168" y="80" />
<rect style="fill:#4a6394" width="7.54" height="7.54" x="168" y="88" />
<rect style="fill:#29427b" width="7.23" height="7.23" x="168" y="96" />
<rect style="fill:#102973" width="7.12" height="7.12" x="168" y="104" />
<rect style="fill:#10296b" width="7.54" height="7.54" x="168" y="112" />
<rect style="fill:#10296b" width="7.44" height="7.44" x="168" y="120" />
<rect style="fill:#08216b" width="7.8100000000000005" height="7.8100000000000005" x="168" y="128" />
<rect style="fill:#08216b" width="7.05" height="7.05" x="168" y="136" />
<rect style="fill:#08216b" width="7.19" height="7.19" x="168" y="144" />
<rect style="fill:#08216b" width="7.6" height="7.6" x="168" y="152" />
<rect style="fill:#08216b" width="7.05" height="7.05" x="168" y="160" />
<rect style="fill:#08216b" width="7.96" height="7.96" x="168" y="168" />
<rect style="fill:#08216b" width="7.89" height="7.89" x="168" y="176" />
<rect style="fill:#10296b" width="7.19" height="7.19" x="168" y="184" />
<rect style="fill:#21397b" width="7.82" height="7.82" x="168" y="192" />
<rect style="fill:#8494b5" width="7.41" height="7.41" x="168" y="200" />
<rect style="fill:#d6dee7" width="7.37" height="7.37" x="168" y="208" />
<rect style="fill:#bdc6d6" width="7.84" height="7.84" x="168" y="216" />
<rect style="fill:#7b8cad" width="7.36" height="7.36" x="168" y="224" />
<rect style="fill:#29427b" width="7.27" height="7.27" x="168" y="232" />
<rect style="fill:#08216b" width="7.74" height="7.74" x="168" y="240" />
<rect style="fill:#08216b" width="7.64" height="7.64" x="168" y="248" />
<rect style="fill:#08216b" width="7.43" height="7.43" x="176" y="0" />
<rect style="fill:#08216b" width="7.6" height="7.6" x="176" y="8" />
<rect style="fill:#08216b" width="7.53" height="7.53" x="176" y="16" />
<rect style="fill:#08216b" width="7.04" height="7.04" x="176" y="24" />
<rect style="fill:#08216b" width="7.85" height="7.85" x="176" y="32" />
<rect style="fill:#10296b" width="7.45" height="7.45" x="176" y="40" />
<rect style="fill:#102973" width="7.57" height="7.57" x="176" y="48" />
<rect style="fill:#183173" width="7.75" height="7.75" x="176" y="56" />
<rect style="fill:#183173" width="7.01" height="7.01" x="176" y="64" />
<rect style="fill:#394a84" width="7.73" height="7.73" x="176" y="72" />
<rect style="fill:#949cbd" width="7.08" height="7.08" x="176" y="80" />
<rect style="fill:#bdc6d6" width="7.85" height="7.85" x="176" y="88" />
<rect style="fill:#6373a5" width="7.8100000000000005" height="7.8100000000000005" x="176" y="96" />
<rect style="fill:#183173" width="7.92" height="7.92" x="176" y="104" />
<rect style="fill:#183173" width="7.9399999999999995" height="7.9399999999999995" x="176" y="112" />
<rect style="fill:#183173" width="7.42" height="7.42" x="176" y="120" />
<rect style="fill:#183173" width="7.89" height="7.89" x="176" y="128" />
<rect style="fill:#183173" width="7.82" height="7.82" x="176" y="136" />
<rect style="fill:#183173" width="7.11" height="7.11" x="176" y="144" />
<rect style="fill:#183173" width="7.84" height="7.84" x="176" y="152" />
<rect style="fill:#183173" width="7.42" height="7.42" x="176" y="160" />
<rect style="fill:#183173" width="7.59" height="7.59" x="176" y="168" />
<rect style="fill:#183173" width="7.2" height="7.2" x="176" y="176" />
<rect style="fill:#183173" width="7.9" height="7.9" x="176" y="184" />
<rect style="fill:#314a84" width="7.84" height="7.84" x="176" y="192" />
<rect style="fill:#8c9cbd" width="7.83" height="7.83" x="176" y="200" />
<rect style="fill:#bdc6d6" width="7.78" height="7.78" x="176" y="208" />
<rect style="fill:#7b8cad" width="7.75" height="7.75" x="176" y="216" />
<rect style="fill:#314284" width="7.99" height="7.99" x="176" y="224" />
<rect style="fill:#10296b" width="7.92" height="7.92" x="176" y="232" />
<rect style="fill:#08216b" width="7.84" height="7.84" x="176" y="240" />
<rect style="fill:#08216b" width="7.13" height="7.13" x="176" y="248" />
<rect style="fill:#08216b" width="7.73" height="7.73" x="184" y="0" />
<rect style="fill:#08216b" width="7.65" height="7.65" x="184" y="8" />
<rect style="fill:#08216b" width="7.16" height="7.16" x="184" y="16" />
<rect style="fill:#08216b" width="7.78" height="7.78" x="184" y="24" />
<rect style="fill:#10296b" width="7.37" height="7.37" x="184" y="32" />
<rect style="fill:#314a84" width="7.73" height="7.73" x="184" y="40" />
<rect style="fill:#6b7ba5" width="7.75" height="7.75" x="184" y="48" />
<rect style="fill:#8c94b5" width="7.74" height="7.74" x="184" y="56" />
<rect style="fill:#8c9cbd" width="7.11" height="7.11" x="184" y="64" />
<rect style="fill:#9ca5c6" width="7.74" height="7.74" x="184" y="72" />
<rect style="fill:#b5bdd6" width="7.57" height="7.57" x="184" y="80" />
<rect style="fill:#d6d6e7" width="7.45" height="7.45" x="184" y="88" />
<rect style="fill:#9ca5c6" width="7.14" height="7.14" x="184" y="96" />
<rect style="fill:#848cb5" width="7.89" height="7.89" x="184" y="104" />
<rect style="fill:#7b8cad" width="7.75" height="7.75" x="184" y="112" />
<rect style="fill:#7b8cad" width="7.96" height="7.96" x="184" y="120" />
<rect style="fill:#7b8cad" width="7.37" height="7.37" x="184" y="128" />
<rect style="fill:#7b8cad" width="7.57" height="7.57" x="184" y="136" />
<rect style="fill:#7b8cad" width="7.92" height="7.92" x="184" y="144" />
<rect style="fill:#7b8cad" width="7.37" height="7.37" x="184" y="152" />
<rect style="fill:#7b8cad" width="7.34" height="7.34" x="184" y="160" />
<rect style="fill:#8494b5" width="7.86" height="7.86" x="184" y="168" />
<rect style="fill:#8494b5" width="7.52" height="7.52" x="184" y="176" />
<rect style="fill:#8c94b5" width="7.62" height="7.62" x="184" y="184" />
<rect style="fill:#8c9cbd" width="7.37" height="7.37" x="184" y="192" />
<rect style="fill:#9ca5c6" width="7.05" height="7.05" x="184" y="200" />
<rect style="fill:#94a5bd" width="7.49" height="7.49" x="184" y="208" />
<rect style="fill:#526394" width="7.03" height="7.03" x="184" y="216" />
<rect style="fill:#102973" width="7.6899999999999995" height="7.6899999999999995" x="184" y="224" />
<rect style="fill:#08216b" width="7.77" height="7.77" x="184" y="232" />
<rect style="fill:#08216b" width="7.97" height="7.97" x="184" y="240" />
<rect style="fill:#08216b" width="7.71" height="7.71" x="184" y="248" />
<rect style="fill:#08216b" width="7.46" height="7.46" x="192" y="0" />
<rect style="fill:#08216b" width="7.26" height="7.26" x="192" y="8" />
<rect style="fill:#08216b" width="7.73" height="7.73" x="192" y="16" />
<rect style="fill:#10296b" width="7.34" height="7.34" x="192" y="24" />
<rect style="fill:#29427b" width="7.57" height="7.57" x="192" y="32" />
<rect style="fill:#848cb5" width="7.27" height="7.27" x="192" y="40" />
<rect style="fill:#ced6e7" width="7.31" height="7.31" x="192" y="48" />
<rect style="fill:#ffffff" width="7.52" height="7.52" x="192" y="56" />
<rect style="fill:#ffffff" width="7.0" height="7.0" x="192" y="64" />
<rect style="fill:#ffffff" width="7.39" height="7.39" x="192" y="72" />
<rect style="fill:#ffffff" width="7.72" height="7.72" x="192" y="80" />
<rect style="fill:#f7f7f7" width="7.95" height="7.95" x="192" y="88" />
<rect style="fill:#dedee7" width="7.29" height="7.29" x="192" y="96" />
<rect style="fill:#d6dee7" width="7.6899999999999995" height="7.6899999999999995" x="192" y="104" />
<rect style="fill:#d6dee7" width="7.63" height="7.63" x="192" y="112" />
<rect style="fill:#d6dee7" width="7.29" height="7.29" x="192" y="120" />
<rect style="fill:#d6dee7" width="7.6" height="7.6" x="192" y="128" />
<rect style="fill:#d6dee7" width="7.25" height="7.25" x="192" y="136" />
<rect style="fill:#d6dee7" width="7.87" height="7.87" x="192" y="144" />
<rect style="fill:#d6dee7" width="7.67" height="7.67" x="192" y="152" />
<rect style="fill:#d6dee7" width="7.02" height="7.02" x="192" y="160" />
<rect style="fill:#e7e7ef" width="7.0" height="7.0" x="192" y="168" />
<rect style="fill:#e7e7ef" width="7.4" height="7.4" x="192" y="176" />
<rect style="fill:#eff7f7" width="7.03" height="7.03" x="192" y="184" />
<rect style="fill:#ffffff" width="7.25" height="7.25" x="192" y="192" />
<rect style="fill:#ffffff" width="7.36" height="7.36" x="192" y="200" />
<rect style="fill:#f7f7f7" width="7.96" height="7.96" x="192" y="208" />
<rect style="fill:#949cbd" width="7.19" height="7.19" x="192" y="216" />
<rect style="fill:#314284" width="7.12" height="7.12" x="192" y="224" />
<rect style="fill:#08216b" width="7.7" height="7.7" x="192" y="232" />
<rect style="fill:#08216b" width="7.0" height="7.0" x="192" y="240" />
<rect style="fill:#08216b" width="7.99" height="7.99" x="192" y="248" />
<rect style="fill:#08216b" width="7.6899999999999995" height="7.6899999999999995" x="200" y="0" />
<rect style="fill:#08216b" width="7.41" height="7.41" x="200" y="8" />
<rect style="fill:#08216b" width="7.39" height="7.39" x="200" y="16" />
<rect style="fill:#21397b" width="7.21" height="7.21" x="200" y="24" />
<rect style="fill:#7384ad" width="7.09" height="7.09" x="200" y="32" />
<rect style="fill:#b5bdd6" width="7.09" height="7.09" x="200" y="40" />
<rect style="fill:#f7f7f7" width="7.48" height="7.48" x="200" y="48" />
<rect style="fill:#ffffff" width="7.84" height="7.84" x="200" y="56" />
<rect style="fill:#ffffff" width="7.96" height="7.96" x="200" y="64" />
<rect style="fill:#ffffff" width="7.06" height="7.06" x="200" y="72" />
<rect style="fill:#ffffff" width="7.55" height="7.55" x="200" y="80" />
<rect style="fill:#ffffff" width="7.23" height="7.23" x="200" y="88" />
<rect style="fill:#ffffff" width="7.75" height="7.75" x="200" y="96" />
<rect style="fill:#ffffff" width="7.09" height="7.09" x="200" y="104" />
<rect style="fill:#ffffff" width="7.05" height="7.05" x="200" y="112" />
<rect style="fill:#ffffff" width="7.48" height="7.48" x="200" y="120" />
<rect style="fill:#ffffff" width="7.96" height="7.96" x="200" y="128" />
<rect style="fill:#ffffff" width="7.65" height="7.65" x="200" y="136" />
<rect style="fill:#ffffff" width="7.39" height="7.39" x="200" y="144" />
<rect style="fill:#ffffff" width="7.58" height="7.58" x="200" y="152" />
<rect style="fill:#ffffff" width="7.9399999999999995" height="7.9399999999999995" x="200" y="160" />
<rect style="fill:#ffffff" width="7.22" height="7.22" x="200" y="168" />
<rect style="fill:#ffffff" width="7.71" height="7.71" x="200" y="176" />
<rect style="fill:#ffffff" width="7.01" height="7.01" x="200" y="184" />
<rect style="fill:#ffffff" width="7.88" height="7.88" x="200" y="192" />
<rect style="fill:#ffffff" width="7.51" height="7.51" x="200" y="200" />
<rect style="fill:#ffffff" width="7.02" height="7.02" x="200" y="208" />
<rect style="fill:#bdc6d6" width="7.4" height="7.4" x="200" y="216" />
<rect style="fill:#6373a5" width="7.97" height="7.97" x="200" y="224" />
<rect style="fill:#183173" width="7.24" height="7.24" x="200" y="232" />
<rect style="fill:#08216b" width="7.86" height="7.86" x="200" y="240" />
<rect style="fill:#08216b" width="7.19" height="7.19" x="200" y="248" />
<rect style="fill:#08216b" width="7.82" height="7.82" x="208" y="0" />
<rect style="fill:#08216b" width="7.01" height="7.01" x="208" y="8" />
<rect style="fill:#10296b" width="7.65" height="7.65" x="208" y="16" />
<rect style="fill:#4a5a94" width="7.43" height="7.43" x="208" y="24" />
<rect style="fill:#b5bdd6" width="7.77" height="7.77" x="208" y="32" />
<rect style="fill:#c6c6de" width="7.37" height="7.37" x="208" y="40" />
<rect style="fill:#adb5ce" width="7.97" height="7.97" x="208" y="48" />
<rect style="fill:#9ca5c6" width="7.91" height="7.91" x="208" y="56" />
<rect style="fill:#949cbd" width="7.51" height="7.51" x="208" y="64" />
<rect style="fill:#9ca5c6" width="7.97" height="7.97" x="208" y="72" />
<rect style="fill:#c6cede" width="7.28" height="7.28" x="208" y="80" />
<rect style="fill:#f7ffff" width="7.59" height="7.59" x="208" y="88" />
<rect style="fill:#d6dee7" width="7.68" height="7.68" x="208" y="96" />
<rect style="fill:#c6cede" width="7.11" height="7.11" x="208" y="104" />
<rect style="fill:#bdc6d6" width="7.71" height="7.71" x="208" y="112" />
<rect style="fill:#b5bdce" width="7.26" height="7.26" x="208" y="120" />
<rect style="fill:#adb5ce" width="7.78" height="7.78" x="208" y="128" />
<rect style="fill:#a5adc6" width="7.42" height="7.42" x="208" y="136" />
<rect style="fill:#a5adc6" width="7.73" height="7.73" x="208" y="144" />
<rect style="fill:#949cbd" width="7.15" height="7.15" x="208" y="152" />
<rect style="fill:#8c9cbd" width="7.99" height="7.99" x="208" y="160" />
<rect style="fill:#8c9cbd" width="7.71" height="7.71" x="208" y="168" />
<rect style="fill:#8c9cbd" width="7.63" height="7.63" x="208" y="176" />
<rect style="fill:#949cbd" width="7.5600000000000005" height="7.5600000000000005" x="208" y="184" />
<rect style="fill:#a5adc6" width="7.31" height="7.31" x="208" y="192" />
<rect style="fill:#c6cede" width="7.08" height="7.08" x="208" y="200" />
<rect style="fill:#ffffff" width="7.85" height="7.85" x="208" y="208" />
<rect style="fill:#efeff7" width="7.6" height="7.6" x="208" y="216" />
<rect style="fill:#a5adc6" width="7.22" height="7.22" x="208" y="224" />
<rect style="fill:#39528c" width="7.58" height="7.58" x="208" y="232" />
<rect style="fill:#10296b" width="7.37" height="7.37" x="208" y="240" />
<rect style="fill:#08216b" width="7.36" height="7.36" x="208" y="248" />
<rect style="fill:#08216b" width="7.57" height="7.57" x="216" y="0" />
<rect style="fill:#08216b" width="7.55" height="7.55" x="216" y="8" />
<rect style="fill:#10296b" width="7.97" height="7.97" x="216" y="16" />
<rect style="fill:#314284" width="7.6" height="7.6" x="216" y="24" />
<rect style="fill:#7b84ad" width="7.61" height="7.61" x="216" y="32" />
<rect style="fill:#6b7ba5" width="7.59" height="7.59" x="216" y="40" />
<rect style="fill:#4a6394" width="7.68" height="7.68" x="216" y="48" />
<rect style="fill:#314284" width="7.57" height="7.57" x="216" y="56" />
<rect style="fill:#21397b" width="7.48" height="7.48" x="216" y="64" />
<rect style="fill:#63739c" width="7.6899999999999995" height="7.6899999999999995" x="216" y="72" />
<rect style="fill:#b5bdd6" width="7.25" height="7.25" x="216" y="80" />
<rect style="fill:#ced6de" width="7.76" height="7.76" x="216" y="88" />
<rect style="fill:#94a5bd" width="7.5" height="7.5" x="216" y="96" />
<rect style="fill:#6b7ba5" width="7.16" height="7.16" x="216" y="104" />
<rect style="fill:#5a6b9c" width="7.48" height="7.48" x="216" y="112" />
<rect style="fill:#4a5a94" width="7.66" height="7.66" x="216" y="120" />
<rect style="fill:#39528c" width="7.1" height="7.1" x="216" y="128" />
<rect style="fill:#394a84" width="7.26" height="7.26" x="216" y="136" />
<rect style="fill:#314284" width="7.6899999999999995" height="7.6899999999999995" x="216" y="144" />
<rect style="fill:#21397b" width="7.29" height="7.29" x="216" y="152" />
<rect style="fill:#183173" width="7.6899999999999995" height="7.6899999999999995" x="216" y="160" />
<rect style="fill:#183173" width="7.23" height="7.23" x="216" y="168" />
<rect style="fill:#183173" width="7.26" height="7.26" x="216" y="176" />
<rect style="fill:#21397b" width="7.32" height="7.32" x="216" y="184" />
<rect style="fill:#42528c" width="7.2" height="7.2" x="216" y="192" />
<rect style="fill:#8c9cbd" width="7.27" height="7.27" x="216" y="200" />
<rect style="fill:#d6d6e7" width="7.02" height="7.02" x="216" y="208" />
<rect style="fill:#ffffff" width="7.52" height="7.52" x="216" y="216" />
<rect style="fill:#ced6de" width="7.03" height="7.03" x="216" y="224" />
<rect style="fill:#5a6b9c" width="7.43" height="7.43" x="216" y="232" />
<rect style="fill:#10296b" width="7.54" height="7.54" x="216" y="240" />
<rect style="fill:#08216b" width="7.86" height="7.86" x="216" y="248" />
<rect style="fill:#08216b" width="7.45" height="7.45" x="224" y="0" />
<rect style="fill:#08216b" width="7.97" height="7.97" x="224" y="8" />
<rect style="fill:#08216b" width="7.48" height="7.48" x="224" y="16" />
<rect style="fill:#10296b" width="7.57" height="7.57" x="224" y="24" />
<rect style="fill:#183173" width="7.5" height="7.5" x="224" y="32" />
<rect style="fill:#102973" width="7.26" height="7.26" x="224" y="40" />
<rect style="fill:#10296b" width="7.0" height="7.0" x="224" y="48" />
<rect style="fill:#08216b" width="7.65" height="7.65" x="224" y="56" />
<rect style="fill:#10296b" width="7.35" height="7.35" x="224" y="64" />
<rect style="fill:#425a8c" width="7.12" height="7.12" x="224" y="72" />
<rect style="fill:#adb5ce" width="7.89" height="7.89" x="224" y="80" />
<rect style="fill:#b5bdce" width="7.82" height="7.82" x="224" y="88" />
<rect style="fill:#5a6b9c" width="7.45" height="7.45" x="224" y="96" />
<rect style="fill:#183173" width="7.19" height="7.19" x="224" y="104" />
<rect style="fill:#10296b" width="7.55" height="7.55" x="224" y="112" />
<rect style="fill:#10296b" width="7.57" height="7.57" x="224" y="120" />
<rect style="fill:#10296b" width="7.25" height="7.25" x="224" y="128" />
<rect style="fill:#10296b" width="7.67" height="7.67" x="224" y="136" />
<rect style="fill:#08216b" width="7.64" height="7.64" x="224" y="144" />
<rect style="fill:#08216b" width="7.17" height="7.17" x="224" y="152" />
<rect style="fill:#08216b" width="7.16" height="7.16" x="224" y="160" />
<rect style="fill:#08216b" width="7.18" height="7.18" x="224" y="168" />
<rect style="fill:#08216b" width="7.49" height="7.49" x="224" y="176" />
<rect style="fill:#08216b" width="7.86" height="7.86" x="224" y="184" />
<rect style="fill:#102973" width="7.29" height="7.29" x="224" y="192" />
<rect style="fill:#6b7ba5" width="7.23" height="7.23" x="224" y="200" />
<rect style="fill:#c6cede" width="7.14" height="7.14" x="224" y="208" />
<rect style="fill:#d6dee7" width="7.36" height="7.36" x="224" y="216" />
<rect style="fill:#94a5bd" width="7.74" height="7.74" x="224" y="224" />
<rect style="fill:#394a84" width="7.87" height="7.87" x="224" y="232" />
<rect style="fill:#10296b" width="7.3" height="7.3" x="224" y="240" />
<rect style="fill:#08216b" width="7.98" height="7.98" x="224" y="248" />
<rect style="fill:#08216b" width="7.23" height="7.23" x="232" y="0" />
<rect style="fill:#08216b" width="7.51" height="7.51" x="232" y="8" />
<rect style="fill:#08216b" width="7.05" height="7.05" x="232" y="16" />
<rect style="fill:#08216b" width="7.3" height="7.3" x="232" y="24" />
<rect style="fill:#08216b" width="7.84" height="7.84" x="232" y="32" />
<rect style="fill:#08216b" width="7.14" height="7.14" x="232" y="40" />
<rect style="fill:#08216b" width="7.26" height="7.26" x="232" y="48" />
<rect style="fill:#08216b" width="7.25" height="7.25" x="232" y="56" />
<rect style="fill:#08216b" width="7.11" height="7.11" x="232" y="64" />
<rect style="fill:#21397b" width="7.31" height="7.31" x="232" y="72" />
<rect style="fill:#4a5a94" width="7.87" height="7.87" x="232" y="80" />
<rect style="fill:#4a6394" width="7.74" height="7.74" x="232" y="88" />
<rect style="fill:#21397b" width="7.36" height="7.36" x="232" y="96" />
<rect style="fill:#08216b" width="7.16" height="7.16" x="232" y="104" />
<rect style="fill:#08216b" width="7.5" height="7.5" x="232" y="112" />
<rect style="fill:#08216b" width="7.59" height="7.59" x="232" y="120" />
<rect style="fill:#08216b" width="7.82" height="7.82" x="232" y="128" />
<rect style="fill:#08216b" width="7.91" height="7.91" x="232" y="136" />
<rect style="fill:#08216b" width="7.39" height="7.39" x="232" y="144" />
<rect style="fill:#08216b" width="7.25" height="7.25" x="232" y="152" />
<rect style="fill:#08216b" width="7.63" height="7.63" x="232" y="160" />
<rect style="fill:#08216b" width="7.54" height="7.54" x="232" y="168" />
<rect style="fill:#08216b" width="7.68" height="7.68" x="232" y="176" />
<rect style="fill:#08216b" width="7.1" height="7.1" x="232" y="184" />
<rect style="fill:#10296b" width="7.14" height="7.14" x="232" y="192" />
<rect style="fill:#5a6b9c" width="7.65" height="7.65" x="232" y="200" />
<rect style="fill:#b5bdd6" width="7.79" height="7.79" x="232" y="208" />
<rect style="fill:#8c94b5" width="7.28" height="7.28" x="232" y="216" />
<rect style="fill:#42528c" width="7.88" height="7.88" x="232" y="224" />
<rect style="fill:#10296b" width="7.15" height="7.15" x="232" y="232" />
<rect style="fill:#08216b" width="7.64" height="7.64" x="232" y="240" />
<rect style="fill:#08216b" width="7.5600000000000005" height="7.5600000000000005" x="232" y="248" />
<rect style="fill:#08216b" width="7.02" height="7.02" x="240" y="0" />
<rect style="fill:#08216b" width="7.62" height="7.62" x="240" y="8" />
<rect style="fill:#08216b" width="7.37" height="7.37" x="240" y="16" />
<rect style="fill:#08216b" width="7.53" height="7.53" x="240" y="24" />
<rect style="fill:#08216b" width="7.89" height="7.89" x="240" y="32" />
<rect style="fill:#08216b" width="7.72" height="7.72" x="240" y="40" />
<rect style="fill:#08216b" width="7.19" height="7.19" x="240" y="48" />
<rect style="fill:#08216b" width="7.58" height="7.58" x="240" y="56" />
<rect style="fill:#08216b" width="7.2" height="7.2" x="240" y="64" />
<rect style="fill:#08216b" width="7.6" height="7.6" x="240" y="72" />
<rect style="fill:#10296b" width="7.26" height="7.26" x="240" y="80" />
<rect style="fill:#10296b" width="7.91" height="7.91" x="240" y="88" />
<rect style="fill:#08216b" width="7.79" height="7.79" x="240" y="96" />
<rect style="fill:#08216b" width="7.8" height="7.8" x="240" y="104" />
<rect style="fill:#08216b" width="7.83" height="7.83" x="240" y="112" />
<rect style="fill:#08216b" width="7.27" height="7.27" x="240" y="120" />
<rect style="fill:#08216b" width="7.95" height="7.95" x="240" y="128" />
<rect style="fill:#08216b" width="7.3" height="7.3" x="240" y="136" />
<rect style="fill:#08216b" width="7.16" height="7.16" x="240" y="144" />
<rect style="fill:#08216b" width="7.2" height="7.2" x="240" y="152" />
<rect style="fill:#08216b" width="7.21" height="7.21" x="240" y="160" />
<rect style="fill:#08216b" width="7.83" height="7.83" x="240" y="168" />
<rect style="fill:#08216b" width="7.8100000000000005" height="7.8100000000000005" x="240" y="176" />
<rect style="fill:#08216b" width="7.29" height="7.29" x="240" y="184" />
<rect style="fill:#08216b" width="7.17" height="7.17" x="240" y="192" />
<rect style="fill:#21397b" width="7.57" height="7.57" x="240" y="200" />
<rect style="fill:#4a5a94" width="7.91" height="7.91" x="240" y="208" />
<rect style="fill:#29427b" width="7.77" height="7.77" x="240" y="216" />
<rect style="fill:#10296b" width="7.26" height="7.26" x="240" y="224" />
<rect style="fill:#08216b" width="7.98" height="7.98" x="240" y="232" />
<rect style="fill:#08216b" width="7.75" height="7.75" x="240" y="240" />
<rect style="fill:#08216b" width="7.2" height="7.2" x="240" y="248" />
<rect style="fill:#08216b" width="7.25" height="7.25" x="248" y="0" />
<rect style="fill:#08216b" width="7.15" height="7.15" x="248" y="8" />
<rect style="fill:#08216b" width="7.99" height="7.99" x="248" y="16" />
<rect style="fill:#08216b" width="7.22" height="7.22" x="248" y="24" />
<rect style="fill:#08216b" width="7.49" height="7.49" x="248" y="32" />
<rect style="fill:#08216b" width="7.9399999999999995" height="7.9399999999999995" x="248" y="40" />
<rect style="fill:#08216b" width="7.14" height="7.14" x="248" y="48" />
<rect style="fill:#08216b" width="7.22" height="7.22" x="248" y="56" />
<rect style="fill:#08216b" width="7.88" height="7.88" x="248" y="64" />
<rect style="fill:#08216b" width="7.22" height="7.22" x="248" y="72" />
<rect style="fill:#08216b" width="7.7" height="7.7" x="248" y="80" />
<rect style="fill:#08216b" width="7.02" height="7.02" x="248" y="88" />
<rect style="fill:#08216b" width="7.95" height="7.95" x="248" y="96" />
<rect style="fill:#08216b" width="7.32" height="7.32" x="248" y="104" />
<rect style="fill:#08216b" width="7.85" height="7.85" x="248" y="112" />
<rect style="fill:#08216b" width="7.02" height="7.02" x="248" y="120" />
<rect style="fill:#08216b" width="7.76" height="7.76" x="248" y="128" />
<rect style="fill:#08216b" width="7.26" height="7.26" x="248" y="136" />
<rect style="fill:#08216b" width="7.16" height="7.16" x="248" y="144" />
<rect style="fill:#08216b" width="7.5" height="7.5" x="248" y="152" />
<rect style="fill:#08216b" width="7.5" height="7.5" x="248" y="160" />
<rect style="fill:#08216b" width="7.78" height="7.78" x="248" y="168" />
<rect style="fill:#08216b" width="7.6899999999999995" height="7.6899999999999995" x="248" y="176" />
<rect style="fill:#08216b" width="7.13" height="7.13" x="248" y="184" />
<rect style="fill:#08216b" width="7.34" height="7.34" x="248" y="192" />
<rect style="fill:#08216b" width="7.03" height="7.03" x="248" y="200" />
<rect style="fill:#10296b" width="7.27" height="7.27" x="248" y="208" />
<rect style="fill:#08216b" width="7.17" height="7.17" x="248" y="216" />
<rect style="fill:#08216b" width="7.61" height="7.61" x="248" y="224" />
<rect style="fill:#08216b" width="7.83" height="7.83" x="248" y="232" />
<rect style="fill:#08216b" width="7.1" height="7.1" x="248" y="240" />
<rect style="fill:#08216b" width="7.82" height="7.82" x="248" y="248" />
</svg>
